<?xml version="1.0" standalone="no"?> 
<!DOCTYPE Svg PUBLIC "-//W3C//DTD SVG 1.1//EN" "http://www.w3.org/Graphics/SVG/1.1/DTD/Svg11.dtd">
<svg width="660px" height="380px" viewBox="0 0 660 380" xmlns="http://www.w3.org/2000/Svg" version="1.1">
                                                                                                                                                                                                       
<line x1="100" y1="280" x2="660" y2="280" stroke="#808080" stroke-width="40" stroke-opacity="0.5"/>
<line x1="100" y1="200" x2="660" y2="200" stroke="#808080" stroke-width="40" stroke-opacity="0.5"/>
<line x1="100" y1="120" x2="660" y2="120" stroke="#808080" stroke-width="40" stroke-opacity="0.5"/>
<line x1="100" y1="40" x2="660" y2="40" stroke="#808080" stroke-width="40" stroke-opacity="0.5"/>
<line x1="620" y1="20" x2="620" y2="380" stroke="#808080" stroke-width="1" stroke-dasharray="10 10"/>
<line x1="580" y1="20" x2="580" y2="380" stroke="#808080" stroke-width="1" stroke-dasharray="10 10"/>
<line x1="540" y1="20" x2="540" y2="380" stroke="#808080" stroke-width="1" stroke-dasharray="10 10"/>
<line x1="500" y1="20" x2="500" y2="380" stroke="#808080" stroke-width="1" stroke-dasharray="10 10"/>
<line x1="460" y1="20" x2="460" y2="380" stroke="#808080" stroke-width="1" stroke-dasharray="10 10"/>
<line x1="420" y1="20" x2="420" y2="380" stroke="#808080" stroke-width="1" stroke-dasharray="10 10"/>
<line x1="380" y1="20" x2="380" y2="380" stroke="#808080" stroke-width="1" stroke-dasharray="10 10"/>
<line x1="340" y1="20" x2="340" y2="380" stroke="#808080" stroke-width="1" stroke-dasharray="10 10"/>
<line x1="300" y1="20" x2="300" y2="380" stroke="#808080" stroke-width="1" stroke-dasharray="10 10"/>
<line x1="260" y1="20" x2="260" y2="380" stroke="#808080" stroke-width="1" stroke-dasharray="10 10"/>
<line x1="220" y1="20" x2="220" y2="380" stroke="#808080" stroke-width="1" stroke-dasharray="10 10"/>
<line x1="180" y1="20" x2="180" y2="380" stroke="#808080" stroke-width="1" stroke-dasharray="10 10"/>
<line x1="140" y1="20" x2="140" y2="380" stroke="#808080" stroke-width="1" stroke-dasharray="10 10"/>
<line x1="100" y1="20" x2="100" y2="380" stroke="#808080" stroke-width="1" stroke-dasharray="10 10"/>
<text x="120" y="369" font-size="18px" font-style="italic" text-anchor="middle" fill="#000000" fill-opacity="1" font-family="DejaVu Sans">1</text>
<text x="160" y="369" font-size="18px" font-style="italic" text-anchor="middle" fill="#000000" fill-opacity="1" font-family="DejaVu Sans">2</text>
<text x="200" y="369" font-size="18px" font-style="italic" text-anchor="middle" fill="#000000" fill-opacity="1" font-family="DejaVu Sans">3</text>
<text x="240" y="369" font-size="18px" font-style="italic" text-anchor="middle" fill="#000000" fill-opacity="1" font-family="DejaVu Sans">4</text>
<text x="280" y="369" font-size="18px" font-style="italic" text-anchor="middle" fill="#000000" fill-opacity="1" font-family="DejaVu Sans">5</text>
<text x="320" y="369" font-size="18px" font-style="italic" text-anchor="middle" fill="#000000" fill-opacity="1" font-family="DejaVu Sans">6</text>
<text x="360" y="369" font-size="18px" font-style="italic" text-anchor="middle" fill="#000000" fill-opacity="1" font-family="DejaVu Sans">7</text>
<text x="400" y="369" font-size="18px" font-style="italic" text-anchor="middle" fill="#000000" fill-opacity="1" font-family="DejaVu Sans">8</text>
<text x="440" y="369" font-size="18px" font-style="italic" text-anchor="middle" fill="#000000" fill-opacity="1" font-family="DejaVu Sans">9</text>
<text x="480" y="369" font-size="18px" font-style="italic" text-anchor="middle" fill="#000000" fill-opacity="1" font-family="DejaVu Sans">10</text>
<text x="520" y="369" font-size="18px" font-style="italic" text-anchor="middle" fill="#000000" fill-opacity="1" font-family="DejaVu Sans">11</text>
<text x="560" y="369" font-size="18px" font-style="italic" text-anchor="middle" fill="#000000" fill-opacity="1" font-family="DejaVu Sans">12</text>
<text x="600" y="369" font-size="18px" font-style="italic" text-anchor="middle" fill="#000000" fill-opacity="1" font-family="DejaVu Sans">13</text>
<text x="640" y="369" font-size="18px" font-style="italic" text-anchor="middle" fill="#000000" fill-opacity="1" font-family="DejaVu Sans">14</text>
<line x1="100" y1="340" x2="660" y2="340" stroke="black" stroke-width="1" stroke-opacity="1.0"/>
<line x1="100" y1="340" x2="660" y2="340" stroke="black" stroke-width="1" stroke-opacity="1.0"/>
<text x="50" y="49" font-size="18px" font-style="italic" text-anchor="middle" fill="#000000" fill-opacity="1" font-family="DejaVu Sans">beq</text>
<text x="50" y="89" font-size="18px" font-style="italic" text-anchor="middle" fill="#000000" fill-opacity="1" font-family="DejaVu Sans">sltu</text>
<text x="50" y="129" font-size="18px" font-style="italic" text-anchor="middle" fill="#000000" fill-opacity="1" font-family="DejaVu Sans">beq</text>
<text x="50" y="169" font-size="18px" font-style="italic" text-anchor="middle" fill="#000000" fill-opacity="1" font-family="DejaVu Sans">subu</text>
<text x="50" y="209" font-size="18px" font-style="italic" text-anchor="middle" fill="#000000" fill-opacity="1" font-family="DejaVu Sans">subu</text>
<text x="50" y="249" font-size="18px" font-style="italic" text-anchor="middle" fill="#000000" fill-opacity="1" font-family="DejaVu Sans">bne</text>
<text x="50" y="289" font-size="18px" font-style="italic" text-anchor="middle" fill="#000000" fill-opacity="1" font-family="DejaVu Sans">add</text>
<text x="50" y="329" font-size="18px" font-style="italic" text-anchor="middle" fill="#000000" fill-opacity="1" font-family="DejaVu Sans">nop</text>
<rect x="100" y="20" width="40" height="40" fill="none" stroke="black" stroke-opacity="1.0"/>
<rect x="100" y="20" width="40" height="40" fill="none" stroke="black" stroke-opacity="1.0"/>
<text x="120" y="49" font-size="18px" font-style="italic" text-anchor="middle" fill="#000000" fill-opacity="1" font-family="DejaVu Sans">I</text>
<rect x="140" y="20" width="40" height="40" fill="none" stroke="black" stroke-opacity="1.0"/>
<rect x="140" y="20" width="40" height="40" fill="none" stroke="black" stroke-opacity="1.0"/>
<text x="160" y="49" font-size="18px" font-style="italic" text-anchor="middle" fill="#000000" fill-opacity="1" font-family="DejaVu Sans">D</text>
<rect x="180" y="20" width="40" height="40" fill="none" stroke="black" stroke-opacity="1.0"/>
<rect x="180" y="20" width="40" height="40" fill="none" stroke="black" stroke-opacity="1.0"/>
<text x="200" y="49" font-size="18px" font-style="italic" text-anchor="middle" fill="#000000" fill-opacity="1" font-family="DejaVu Sans">E</text>
<rect x="220" y="20" width="40" height="40" fill="none" stroke="black" stroke-opacity="1.0"/>
<rect x="220" y="20" width="40" height="40" fill="none" stroke="black" stroke-opacity="1.0"/>
<text x="240" y="49" font-size="18px" font-style="italic" text-anchor="middle" fill="#000000" fill-opacity="1" font-family="DejaVu Sans">M</text>
<rect x="260" y="20" width="40" height="40" fill="none" stroke="black" stroke-opacity="1.0"/>
<rect x="260" y="20" width="40" height="40" fill="none" stroke="black" stroke-opacity="1.0"/>
<text x="280" y="49" font-size="18px" font-style="italic" text-anchor="middle" fill="#000000" fill-opacity="1" font-family="DejaVu Sans">W</text>
<rect x="140" y="60" width="40" height="40" fill="none" stroke="black" stroke-opacity="1.0"/>
<rect x="140" y="60" width="40" height="40" fill="none" stroke="black" stroke-opacity="1.0"/>
<text x="160" y="89" font-size="18px" font-style="italic" text-anchor="middle" fill="#000000" fill-opacity="1" font-family="DejaVu Sans">I</text>
<rect x="180" y="60" width="40" height="40" fill="none" stroke="black" stroke-opacity="1.0"/>
<rect x="180" y="60" width="40" height="40" fill="none" stroke="black" stroke-opacity="1.0"/>
<text x="200" y="89" font-size="18px" font-style="italic" text-anchor="middle" fill="#000000" fill-opacity="1" font-family="DejaVu Sans">D</text>
<rect x="220" y="60" width="40" height="40" fill="none" stroke="black" stroke-opacity="1.0"/>
<rect x="220" y="60" width="40" height="40" fill="none" stroke="black" stroke-opacity="1.0"/>
<text x="240" y="89" font-size="18px" font-style="italic" text-anchor="middle" fill="#000000" fill-opacity="1" font-family="DejaVu Sans">E</text>
<rect x="260" y="60" width="40" height="40" fill="none" stroke="black" stroke-opacity="1.0"/>
<rect x="260" y="60" width="40" height="40" fill="none" stroke="black" stroke-opacity="1.0"/>
<text x="280" y="89" font-size="18px" font-style="italic" text-anchor="middle" fill="#000000" fill-opacity="1" font-family="DejaVu Sans">M</text>
<rect x="300" y="60" width="40" height="40" fill="none" stroke="black" stroke-opacity="1.0"/>
<rect x="300" y="60" width="40" height="40" fill="none" stroke="black" stroke-opacity="1.0"/>
<text x="320" y="89" font-size="18px" font-style="italic" text-anchor="middle" fill="#000000" fill-opacity="1" font-family="DejaVu Sans">W</text>
<rect x="180" y="100" width="40" height="40" fill="none" stroke="black" stroke-opacity="1.0"/>
<rect x="180" y="100" width="40" height="40" fill="none" stroke="black" stroke-opacity="1.0"/>
<text x="200" y="129" font-size="18px" font-style="italic" text-anchor="middle" fill="#000000" fill-opacity="1" font-family="DejaVu Sans">I</text>
<rect x="220" y="100" width="40" height="40" fill="none" stroke="black" stroke-opacity="1.0"/>
<rect x="220" y="100" width="40" height="40" fill="none" stroke="black" stroke-opacity="1.0"/>
<circle cx="240" cy="120" r="10" stroke="black" fill="aqua"/>
<rect x="260" y="100" width="40" height="40" fill="none" stroke="black" stroke-opacity="1.0"/>
<rect x="260" y="100" width="40" height="40" fill="none" stroke="black" stroke-opacity="1.0"/>
<text x="280" y="129" font-size="18px" font-style="italic" text-anchor="middle" fill="#000000" fill-opacity="1" font-family="DejaVu Sans">D</text>
<rect x="300" y="100" width="40" height="40" fill="none" stroke="black" stroke-opacity="1.0"/>
<rect x="300" y="100" width="40" height="40" fill="none" stroke="black" stroke-opacity="1.0"/>
<text x="320" y="129" font-size="18px" font-style="italic" text-anchor="middle" fill="#000000" fill-opacity="1" font-family="DejaVu Sans">E</text>
<rect x="340" y="100" width="40" height="40" fill="none" stroke="black" stroke-opacity="1.0"/>
<rect x="340" y="100" width="40" height="40" fill="none" stroke="black" stroke-opacity="1.0"/>
<text x="360" y="129" font-size="18px" font-style="italic" text-anchor="middle" fill="#000000" fill-opacity="1" font-family="DejaVu Sans">M</text>
<rect x="380" y="100" width="40" height="40" fill="none" stroke="black" stroke-opacity="1.0"/>
<rect x="380" y="100" width="40" height="40" fill="none" stroke="black" stroke-opacity="1.0"/>
<text x="400" y="129" font-size="18px" font-style="italic" text-anchor="middle" fill="#000000" fill-opacity="1" font-family="DejaVu Sans">W</text>
<rect x="260" y="140" width="40" height="40" fill="none" stroke="black" stroke-opacity="1.0"/>
<rect x="260" y="140" width="40" height="40" fill="none" stroke="black" stroke-opacity="1.0"/>
<text x="280" y="169" font-size="18px" font-style="italic" text-anchor="middle" fill="#000000" fill-opacity="1" font-family="DejaVu Sans">I</text>
<rect x="300" y="140" width="40" height="40" fill="none" stroke="black" stroke-opacity="1.0"/>
<rect x="300" y="140" width="40" height="40" fill="none" stroke="black" stroke-opacity="1.0"/>
<text x="320" y="169" font-size="18px" font-style="italic" text-anchor="middle" fill="#000000" fill-opacity="1" font-family="DejaVu Sans">D</text>
<rect x="340" y="140" width="40" height="40" fill="none" stroke="black" stroke-opacity="1.0"/>
<rect x="340" y="140" width="40" height="40" fill="none" stroke="black" stroke-opacity="1.0"/>
<text x="360" y="169" font-size="18px" font-style="italic" text-anchor="middle" fill="#000000" fill-opacity="1" font-family="DejaVu Sans">E</text>
<rect x="380" y="140" width="40" height="40" fill="none" stroke="black" stroke-opacity="1.0"/>
<rect x="380" y="140" width="40" height="40" fill="none" stroke="black" stroke-opacity="1.0"/>
<text x="400" y="169" font-size="18px" font-style="italic" text-anchor="middle" fill="#000000" fill-opacity="1" font-family="DejaVu Sans">M</text>
<rect x="420" y="140" width="40" height="40" fill="none" stroke="black" stroke-opacity="1.0"/>
<rect x="420" y="140" width="40" height="40" fill="none" stroke="black" stroke-opacity="1.0"/>
<text x="440" y="169" font-size="18px" font-style="italic" text-anchor="middle" fill="#000000" fill-opacity="1" font-family="DejaVu Sans">W</text>
<rect x="300" y="180" width="40" height="40" fill="none" stroke="black" stroke-opacity="1.0"/>
<rect x="300" y="180" width="40" height="40" fill="none" stroke="black" stroke-opacity="1.0"/>
<text x="320" y="209" font-size="18px" font-style="italic" text-anchor="middle" fill="#000000" fill-opacity="1" font-family="DejaVu Sans">I</text>
<rect x="340" y="180" width="40" height="40" fill="none" stroke="black" stroke-opacity="1.0"/>
<rect x="340" y="180" width="40" height="40" fill="none" stroke="black" stroke-opacity="1.0"/>
<text x="360" y="209" font-size="18px" font-style="italic" text-anchor="middle" fill="#000000" fill-opacity="1" font-family="DejaVu Sans">D</text>
<rect x="380" y="180" width="40" height="40" fill="none" stroke="black" stroke-opacity="1.0"/>
<rect x="380" y="180" width="40" height="40" fill="none" stroke="black" stroke-opacity="1.0"/>
<text x="400" y="209" font-size="18px" font-style="italic" text-anchor="middle" fill="#000000" fill-opacity="1" font-family="DejaVu Sans">E</text>
<rect x="420" y="180" width="40" height="40" fill="none" stroke="black" stroke-opacity="1.0"/>
<rect x="420" y="180" width="40" height="40" fill="none" stroke="black" stroke-opacity="1.0"/>
<text x="440" y="209" font-size="18px" font-style="italic" text-anchor="middle" fill="#000000" fill-opacity="1" font-family="DejaVu Sans">M</text>
<rect x="460" y="180" width="40" height="40" fill="none" stroke="black" stroke-opacity="1.0"/>
<rect x="460" y="180" width="40" height="40" fill="none" stroke="black" stroke-opacity="1.0"/>
<text x="480" y="209" font-size="18px" font-style="italic" text-anchor="middle" fill="#000000" fill-opacity="1" font-family="DejaVu Sans">W</text>
<rect x="340" y="220" width="40" height="40" fill="none" stroke="black" stroke-opacity="1.0"/>
<rect x="340" y="220" width="40" height="40" fill="none" stroke="black" stroke-opacity="1.0"/>
<text x="360" y="249" font-size="18px" font-style="italic" text-anchor="middle" fill="#000000" fill-opacity="1" font-family="DejaVu Sans">I</text>
<rect x="380" y="220" width="40" height="40" fill="none" stroke="black" stroke-opacity="1.0"/>
<rect x="380" y="220" width="40" height="40" fill="none" stroke="black" stroke-opacity="1.0"/>
<circle cx="400" cy="240" r="10" stroke="black" fill="aqua"/>
<rect x="420" y="220" width="40" height="40" fill="none" stroke="black" stroke-opacity="1.0"/>
<rect x="420" y="220" width="40" height="40" fill="none" stroke="black" stroke-opacity="1.0"/>
<text x="440" y="249" font-size="18px" font-style="italic" text-anchor="middle" fill="#000000" fill-opacity="1" font-family="DejaVu Sans">D</text>
<rect x="460" y="220" width="40" height="40" fill="none" stroke="black" stroke-opacity="1.0"/>
<rect x="460" y="220" width="40" height="40" fill="none" stroke="black" stroke-opacity="1.0"/>
<text x="480" y="249" font-size="18px" font-style="italic" text-anchor="middle" fill="#000000" fill-opacity="1" font-family="DejaVu Sans">E</text>
<rect x="500" y="220" width="40" height="40" fill="none" stroke="black" stroke-opacity="1.0"/>
<rect x="500" y="220" width="40" height="40" fill="none" stroke="black" stroke-opacity="1.0"/>
<text x="520" y="249" font-size="18px" font-style="italic" text-anchor="middle" fill="#000000" fill-opacity="1" font-family="DejaVu Sans">M</text>
<rect x="540" y="220" width="40" height="40" fill="none" stroke="black" stroke-opacity="1.0"/>
<rect x="540" y="220" width="40" height="40" fill="none" stroke="black" stroke-opacity="1.0"/>
<text x="560" y="249" font-size="18px" font-style="italic" text-anchor="middle" fill="#000000" fill-opacity="1" font-family="DejaVu Sans">W</text>
<rect x="420" y="260" width="40" height="40" fill="none" stroke="black" stroke-opacity="1.0"/>
<rect x="420" y="260" width="40" height="40" fill="none" stroke="black" stroke-opacity="1.0"/>
<text x="440" y="289" font-size="18px" font-style="italic" text-anchor="middle" fill="#000000" fill-opacity="1" font-family="DejaVu Sans">I</text>
<rect x="460" y="260" width="40" height="40" fill="none" stroke="black" stroke-opacity="1.0"/>
<rect x="460" y="260" width="40" height="40" fill="none" stroke="black" stroke-opacity="1.0"/>
<text x="480" y="289" font-size="18px" font-style="italic" text-anchor="middle" fill="#000000" fill-opacity="1" font-family="DejaVu Sans">D</text>
<rect x="500" y="260" width="40" height="40" fill="none" stroke="black" stroke-opacity="1.0"/>
<rect x="500" y="260" width="40" height="40" fill="none" stroke="black" stroke-opacity="1.0"/>
<text x="520" y="289" font-size="18px" font-style="italic" text-anchor="middle" fill="#000000" fill-opacity="1" font-family="DejaVu Sans">E</text>
<rect x="540" y="260" width="40" height="40" fill="none" stroke="black" stroke-opacity="1.0"/>
<rect x="540" y="260" width="40" height="40" fill="none" stroke="black" stroke-opacity="1.0"/>
<text x="560" y="289" font-size="18px" font-style="italic" text-anchor="middle" fill="#000000" fill-opacity="1" font-family="DejaVu Sans">M</text>
<rect x="580" y="260" width="40" height="40" fill="none" stroke="black" stroke-opacity="1.0"/>
<rect x="580" y="260" width="40" height="40" fill="none" stroke="black" stroke-opacity="1.0"/>
<text x="600" y="289" font-size="18px" font-style="italic" text-anchor="middle" fill="#000000" fill-opacity="1" font-family="DejaVu Sans">W</text>
<rect x="460" y="300" width="40" height="40" fill="none" stroke="black" stroke-opacity="1.0"/>
<rect x="460" y="300" width="40" height="40" fill="none" stroke="black" stroke-opacity="1.0"/>
<text x="480" y="329" font-size="18px" font-style="italic" text-anchor="middle" fill="#000000" fill-opacity="1" font-family="DejaVu Sans">I</text>
<rect x="500" y="300" width="40" height="40" fill="none" stroke="black" stroke-opacity="1.0"/>
<rect x="500" y="300" width="40" height="40" fill="none" stroke="black" stroke-opacity="1.0"/>
<text x="520" y="329" font-size="18px" font-style="italic" text-anchor="middle" fill="#000000" fill-opacity="1" font-family="DejaVu Sans">D</text>
<rect x="540" y="300" width="40" height="40" fill="none" stroke="black" stroke-opacity="1.0"/>
<rect x="540" y="300" width="40" height="40" fill="none" stroke="black" stroke-opacity="1.0"/>
<text x="560" y="329" font-size="18px" font-style="italic" text-anchor="middle" fill="#000000" fill-opacity="1" font-family="DejaVu Sans">E</text>
<rect x="580" y="300" width="40" height="40" fill="none" stroke="black" stroke-opacity="1.0"/>
<rect x="580" y="300" width="40" height="40" fill="none" stroke="black" stroke-opacity="1.0"/>
<text x="600" y="329" font-size="18px" font-style="italic" text-anchor="middle" fill="#000000" fill-opacity="1" font-family="DejaVu Sans">M</text>
<rect x="620" y="300" width="40" height="40" fill="none" stroke="black" stroke-opacity="1.0"/>
<rect x="620" y="300" width="40" height="40" fill="none" stroke="black" stroke-opacity="1.0"/>
<text x="640" y="329" font-size="18px" font-style="italic" text-anchor="middle" fill="#000000" fill-opacity="1" font-family="DejaVu Sans">W</text>
<circle cx="465" cy="280" r="5" stroke="black" fill="red"/>
<circle cx="455" cy="200" r="5" stroke="black" fill="red"/>
<line x1="465" y1="280" x2="455" y2="200" stroke="red" stroke-width="1.5" stroke-opacity="1.0"/>
<line x1="465" y1="280" x2="455" y2="200" stroke="red" stroke-width="1.5" stroke-opacity="1.0"/>
<circle cx="425" cy="240" r="5" stroke="black" fill="red"/>
<circle cx="415" cy="200" r="5" stroke="black" fill="red"/>
<line x1="425" y1="240" x2="415" y2="200" stroke="red" stroke-width="1.5" stroke-opacity="1.0"/>
<line x1="425" y1="240" x2="415" y2="200" stroke="red" stroke-width="1.5" stroke-opacity="1.0"/>
<circle cx="385" cy="200" r="5" stroke="black" fill="red"/>
<circle cx="375" cy="160" r="5" stroke="black" fill="red"/>
<line x1="385" y1="200" x2="375" y2="160" stroke="red" stroke-width="1.5" stroke-opacity="1.0"/>
<line x1="385" y1="200" x2="375" y2="160" stroke="red" stroke-width="1.5" stroke-opacity="1.0"/>
<circle cx="425" cy="240" r="5" stroke="black" fill="lime"/>
<circle cx="415" cy="160" r="5" stroke="black" fill="lime"/>
<line x1="425" y1="240" x2="415" y2="160" stroke="lime" stroke-width="1.5" stroke-opacity="1.0"/>
<line x1="425" y1="240" x2="415" y2="160" stroke="lime" stroke-width="1.5" stroke-opacity="1.0"/>
<circle cx="265" cy="120" r="5" stroke="black" fill="red"/>
<circle cx="255" cy="80" r="5" stroke="black" fill="red"/>
<line x1="265" y1="120" x2="255" y2="80" stroke="red" stroke-width="1.5" stroke-opacity="1.0"/>
<line x1="265" y1="120" x2="255" y2="80" stroke="red" stroke-width="1.5" stroke-opacity="1.0"/>
</svg>
