<?xml version="1.0" standalone="no"?> 
<!DOCTYPE svg PUBLIC "-//W3C//DTD SVG 1.1//EN" "http://www.w3.org/Graphics/SVG/1.1/DTD/svg11.dtd">
<svg width="860px" height="380px" viewBox="0 0 860 380" xmlns="http://www.w3.org/2000/svg" version="1.1">
                                                                                                                                                                                                       
<line x1="100" y1="280" x2="860" y2="280" stroke="#808080" stroke-width="40" stroke-opacity="0.5"/>
<line x1="100" y1="200" x2="860" y2="200" stroke="#808080" stroke-width="40" stroke-opacity="0.5"/>
<line x1="100" y1="120" x2="860" y2="120" stroke="#808080" stroke-width="40" stroke-opacity="0.5"/>
<line x1="100" y1="40" x2="860" y2="40" stroke="#808080" stroke-width="40" stroke-opacity="0.5"/>
<line x1="820" y1="20" x2="820" y2="380" stroke="#808080" stroke-width="1" stroke-dasharray="10 10"/>
<line x1="780" y1="20" x2="780" y2="380" stroke="#808080" stroke-width="1" stroke-dasharray="10 10"/>
<line x1="740" y1="20" x2="740" y2="380" stroke="#808080" stroke-width="1" stroke-dasharray="10 10"/>
<line x1="700" y1="20" x2="700" y2="380" stroke="#808080" stroke-width="1" stroke-dasharray="10 10"/>
<line x1="660" y1="20" x2="660" y2="380" stroke="#808080" stroke-width="1" stroke-dasharray="10 10"/>
<line x1="620" y1="20" x2="620" y2="380" stroke="#808080" stroke-width="1" stroke-dasharray="10 10"/>
<line x1="580" y1="20" x2="580" y2="380" stroke="#808080" stroke-width="1" stroke-dasharray="10 10"/>
<line x1="540" y1="20" x2="540" y2="380" stroke="#808080" stroke-width="1" stroke-dasharray="10 10"/>
<line x1="500" y1="20" x2="500" y2="380" stroke="#808080" stroke-width="1" stroke-dasharray="10 10"/>
<line x1="460" y1="20" x2="460" y2="380" stroke="#808080" stroke-width="1" stroke-dasharray="10 10"/>
<line x1="420" y1="20" x2="420" y2="380" stroke="#808080" stroke-width="1" stroke-dasharray="10 10"/>
<line x1="380" y1="20" x2="380" y2="380" stroke="#808080" stroke-width="1" stroke-dasharray="10 10"/>
<line x1="340" y1="20" x2="340" y2="380" stroke="#808080" stroke-width="1" stroke-dasharray="10 10"/>
<line x1="300" y1="20" x2="300" y2="380" stroke="#808080" stroke-width="1" stroke-dasharray="10 10"/>
<line x1="260" y1="20" x2="260" y2="380" stroke="#808080" stroke-width="1" stroke-dasharray="10 10"/>
<line x1="220" y1="20" x2="220" y2="380" stroke="#808080" stroke-width="1" stroke-dasharray="10 10"/>
<line x1="180" y1="20" x2="180" y2="380" stroke="#808080" stroke-width="1" stroke-dasharray="10 10"/>
<line x1="140" y1="20" x2="140" y2="380" stroke="#808080" stroke-width="1" stroke-dasharray="10 10"/>
<line x1="100" y1="20" x2="100" y2="380" stroke="#808080" stroke-width="1" stroke-dasharray="10 10"/>
<text x="120" y="369" font-size="18px" font-style="italic" text-anchor="middle" fill="#000000" fill-opacity="1" font-family="DejaVu Sans">1</text>
<text x="160" y="369" font-size="18px" font-style="italic" text-anchor="middle" fill="#000000" fill-opacity="1" font-family="DejaVu Sans">2</text>
<text x="200" y="369" font-size="18px" font-style="italic" text-anchor="middle" fill="#000000" fill-opacity="1" font-family="DejaVu Sans">3</text>
<text x="240" y="369" font-size="18px" font-style="italic" text-anchor="middle" fill="#000000" fill-opacity="1" font-family="DejaVu Sans">4</text>
<text x="280" y="369" font-size="18px" font-style="italic" text-anchor="middle" fill="#000000" fill-opacity="1" font-family="DejaVu Sans">5</text>
<text x="320" y="369" font-size="18px" font-style="italic" text-anchor="middle" fill="#000000" fill-opacity="1" font-family="DejaVu Sans">6</text>
<text x="360" y="369" font-size="18px" font-style="italic" text-anchor="middle" fill="#000000" fill-opacity="1" font-family="DejaVu Sans">7</text>
<text x="400" y="369" font-size="18px" font-style="italic" text-anchor="middle" fill="#000000" fill-opacity="1" font-family="DejaVu Sans">8</text>
<text x="440" y="369" font-size="18px" font-style="italic" text-anchor="middle" fill="#000000" fill-opacity="1" font-family="DejaVu Sans">9</text>
<text x="480" y="369" font-size="18px" font-style="italic" text-anchor="middle" fill="#000000" fill-opacity="1" font-family="DejaVu Sans">10</text>
<text x="520" y="369" font-size="18px" font-style="italic" text-anchor="middle" fill="#000000" fill-opacity="1" font-family="DejaVu Sans">11</text>
<text x="560" y="369" font-size="18px" font-style="italic" text-anchor="middle" fill="#000000" fill-opacity="1" font-family="DejaVu Sans">12</text>
<text x="600" y="369" font-size="18px" font-style="italic" text-anchor="middle" fill="#000000" fill-opacity="1" font-family="DejaVu Sans">13</text>
<text x="640" y="369" font-size="18px" font-style="italic" text-anchor="middle" fill="#000000" fill-opacity="1" font-family="DejaVu Sans">14</text>
<text x="680" y="369" font-size="18px" font-style="italic" text-anchor="middle" fill="#000000" fill-opacity="1" font-family="DejaVu Sans">15</text>
<text x="720" y="369" font-size="18px" font-style="italic" text-anchor="middle" fill="#000000" fill-opacity="1" font-family="DejaVu Sans">16</text>
<text x="760" y="369" font-size="18px" font-style="italic" text-anchor="middle" fill="#000000" fill-opacity="1" font-family="DejaVu Sans">17</text>
<text x="800" y="369" font-size="18px" font-style="italic" text-anchor="middle" fill="#000000" fill-opacity="1" font-family="DejaVu Sans">18</text>
<text x="840" y="369" font-size="18px" font-style="italic" text-anchor="middle" fill="#000000" fill-opacity="1" font-family="DejaVu Sans">19</text>
<line x1="100" y1="340" x2="860" y2="340" stroke="black" stroke-width="1" stroke-opacity="1.0"/>
<line x1="100" y1="340" x2="860" y2="340" stroke="black" stroke-width="1" stroke-opacity="1.0"/>
<text x="50" y="49" font-size="18px" font-style="italic" text-anchor="middle" fill="#000000" fill-opacity="1" font-family="DejaVu Sans">lbu</text>
<text x="50" y="89" font-size="18px" font-style="italic" text-anchor="middle" fill="#000000" fill-opacity="1" font-family="DejaVu Sans">addu</text>
<text x="50" y="129" font-size="18px" font-style="italic" text-anchor="middle" fill="#000000" fill-opacity="1" font-family="DejaVu Sans">lbu</text>
<text x="50" y="169" font-size="18px" font-style="italic" text-anchor="middle" fill="#000000" fill-opacity="1" font-family="DejaVu Sans">sb</text>
<text x="50" y="209" font-size="18px" font-style="italic" text-anchor="middle" fill="#000000" fill-opacity="1" font-family="DejaVu Sans">addiu</text>
<text x="50" y="249" font-size="18px" font-style="italic" text-anchor="middle" fill="#000000" fill-opacity="1" font-family="DejaVu Sans">bne</text>
<text x="50" y="289" font-size="18px" font-style="italic" text-anchor="middle" fill="#000000" fill-opacity="1" font-family="DejaVu Sans">nop</text>
<text x="50" y="329" font-size="18px" font-style="italic" text-anchor="middle" fill="#000000" fill-opacity="1" font-family="DejaVu Sans">nop</text>
<rect x="100" y="20" width="40" height="40" fill="none" stroke="black" stroke-opacity="1.0"/>
<rect x="100" y="20" width="40" height="40" fill="none" stroke="black" stroke-opacity="1.0"/>
<text x="120" y="49" font-size="18px" font-style="italic" text-anchor="middle" fill="#000000" fill-opacity="1" font-family="DejaVu Sans">I0</text>
<rect x="140" y="20" width="40" height="40" fill="none" stroke="black" stroke-opacity="1.0"/>
<rect x="140" y="20" width="40" height="40" fill="none" stroke="black" stroke-opacity="1.0"/>
<text x="160" y="49" font-size="18px" font-style="italic" text-anchor="middle" fill="#000000" fill-opacity="1" font-family="DejaVu Sans">I1</text>
<rect x="180" y="20" width="40" height="40" fill="none" stroke="black" stroke-opacity="1.0"/>
<rect x="180" y="20" width="40" height="40" fill="none" stroke="black" stroke-opacity="1.0"/>
<text x="200" y="49" font-size="18px" font-style="italic" text-anchor="middle" fill="#000000" fill-opacity="1" font-family="DejaVu Sans">D</text>
<rect x="220" y="20" width="40" height="40" fill="none" stroke="black" stroke-opacity="1.0"/>
<rect x="220" y="20" width="40" height="40" fill="none" stroke="black" stroke-opacity="1.0"/>
<text x="240" y="49" font-size="18px" font-style="italic" text-anchor="middle" fill="#000000" fill-opacity="1" font-family="DejaVu Sans">E</text>
<rect x="260" y="20" width="40" height="40" fill="none" stroke="black" stroke-opacity="1.0"/>
<rect x="260" y="20" width="40" height="40" fill="none" stroke="black" stroke-opacity="1.0"/>
<text x="280" y="49" font-size="18px" font-style="italic" text-anchor="middle" fill="#000000" fill-opacity="1" font-family="DejaVu Sans">M0</text>
<rect x="300" y="20" width="40" height="40" fill="none" stroke="black" stroke-opacity="1.0"/>
<rect x="300" y="20" width="40" height="40" fill="none" stroke="black" stroke-opacity="1.0"/>
<text x="320" y="49" font-size="18px" font-style="italic" text-anchor="middle" fill="#000000" fill-opacity="1" font-family="DejaVu Sans">M1</text>
<rect x="340" y="20" width="40" height="40" fill="none" stroke="black" stroke-opacity="1.0"/>
<rect x="340" y="20" width="40" height="40" fill="none" stroke="black" stroke-opacity="1.0"/>
<text x="360" y="49" font-size="18px" font-style="italic" text-anchor="middle" fill="#000000" fill-opacity="1" font-family="DejaVu Sans">W</text>
<rect x="140" y="60" width="40" height="40" fill="none" stroke="black" stroke-opacity="1.0"/>
<rect x="140" y="60" width="40" height="40" fill="none" stroke="black" stroke-opacity="1.0"/>
<text x="160" y="89" font-size="18px" font-style="italic" text-anchor="middle" fill="#000000" fill-opacity="1" font-family="DejaVu Sans">I0</text>
<rect x="180" y="60" width="40" height="40" fill="none" stroke="black" stroke-opacity="1.0"/>
<rect x="180" y="60" width="40" height="40" fill="none" stroke="black" stroke-opacity="1.0"/>
<text x="200" y="89" font-size="18px" font-style="italic" text-anchor="middle" fill="#000000" fill-opacity="1" font-family="DejaVu Sans">I1</text>
<rect x="220" y="60" width="40" height="40" fill="none" stroke="black" stroke-opacity="1.0"/>
<rect x="220" y="60" width="40" height="40" fill="none" stroke="black" stroke-opacity="1.0"/>
<text x="240" y="89" font-size="18px" font-style="italic" text-anchor="middle" fill="#000000" fill-opacity="1" font-family="DejaVu Sans">D</text>
<rect x="260" y="60" width="40" height="40" fill="none" stroke="black" stroke-opacity="1.0"/>
<rect x="260" y="60" width="40" height="40" fill="none" stroke="black" stroke-opacity="1.0"/>
<circle cx="280" cy="80" r="10" stroke="black" fill="aqua"/>
<rect x="300" y="60" width="40" height="40" fill="none" stroke="black" stroke-opacity="1.0"/>
<rect x="300" y="60" width="40" height="40" fill="none" stroke="black" stroke-opacity="1.0"/>
<circle cx="320" cy="80" r="10" stroke="black" fill="aqua"/>
<rect x="340" y="60" width="40" height="40" fill="none" stroke="black" stroke-opacity="1.0"/>
<rect x="340" y="60" width="40" height="40" fill="none" stroke="black" stroke-opacity="1.0"/>
<text x="360" y="89" font-size="18px" font-style="italic" text-anchor="middle" fill="#000000" fill-opacity="1" font-family="DejaVu Sans">E</text>
<rect x="380" y="60" width="40" height="40" fill="none" stroke="black" stroke-opacity="1.0"/>
<rect x="380" y="60" width="40" height="40" fill="none" stroke="black" stroke-opacity="1.0"/>
<text x="400" y="89" font-size="18px" font-style="italic" text-anchor="middle" fill="#000000" fill-opacity="1" font-family="DejaVu Sans">M0</text>
<rect x="420" y="60" width="40" height="40" fill="none" stroke="black" stroke-opacity="1.0"/>
<rect x="420" y="60" width="40" height="40" fill="none" stroke="black" stroke-opacity="1.0"/>
<text x="440" y="89" font-size="18px" font-style="italic" text-anchor="middle" fill="#000000" fill-opacity="1" font-family="DejaVu Sans">M1</text>
<rect x="460" y="60" width="40" height="40" fill="none" stroke="black" stroke-opacity="1.0"/>
<rect x="460" y="60" width="40" height="40" fill="none" stroke="black" stroke-opacity="1.0"/>
<text x="480" y="89" font-size="18px" font-style="italic" text-anchor="middle" fill="#000000" fill-opacity="1" font-family="DejaVu Sans">W</text>
<rect x="180" y="100" width="40" height="40" fill="none" stroke="black" stroke-opacity="1.0"/>
<rect x="180" y="100" width="40" height="40" fill="none" stroke="black" stroke-opacity="1.0"/>
<text x="200" y="129" font-size="18px" font-style="italic" text-anchor="middle" fill="#000000" fill-opacity="1" font-family="DejaVu Sans">I0</text>
<rect x="220" y="100" width="40" height="40" fill="none" stroke="black" stroke-opacity="1.0"/>
<rect x="220" y="100" width="40" height="40" fill="none" stroke="black" stroke-opacity="1.0"/>
<text x="240" y="129" font-size="18px" font-style="italic" text-anchor="middle" fill="#000000" fill-opacity="1" font-family="DejaVu Sans">I1</text>
<rect x="260" y="100" width="40" height="40" fill="none" stroke="black" stroke-opacity="1.0"/>
<rect x="260" y="100" width="40" height="40" fill="none" stroke="black" stroke-opacity="1.0"/>
<circle cx="280" cy="120" r="10" stroke="black" fill="aqua"/>
<rect x="300" y="100" width="40" height="40" fill="none" stroke="black" stroke-opacity="1.0"/>
<rect x="300" y="100" width="40" height="40" fill="none" stroke="black" stroke-opacity="1.0"/>
<circle cx="320" cy="120" r="10" stroke="black" fill="aqua"/>
<rect x="340" y="100" width="40" height="40" fill="none" stroke="black" stroke-opacity="1.0"/>
<rect x="340" y="100" width="40" height="40" fill="none" stroke="black" stroke-opacity="1.0"/>
<text x="360" y="129" font-size="18px" font-style="italic" text-anchor="middle" fill="#000000" fill-opacity="1" font-family="DejaVu Sans">D</text>
<rect x="380" y="100" width="40" height="40" fill="none" stroke="black" stroke-opacity="1.0"/>
<rect x="380" y="100" width="40" height="40" fill="none" stroke="black" stroke-opacity="1.0"/>
<text x="400" y="129" font-size="18px" font-style="italic" text-anchor="middle" fill="#000000" fill-opacity="1" font-family="DejaVu Sans">E</text>
<rect x="420" y="100" width="40" height="40" fill="none" stroke="black" stroke-opacity="1.0"/>
<rect x="420" y="100" width="40" height="40" fill="none" stroke="black" stroke-opacity="1.0"/>
<text x="440" y="129" font-size="18px" font-style="italic" text-anchor="middle" fill="#000000" fill-opacity="1" font-family="DejaVu Sans">M0</text>
<rect x="460" y="100" width="40" height="40" fill="none" stroke="black" stroke-opacity="1.0"/>
<rect x="460" y="100" width="40" height="40" fill="none" stroke="black" stroke-opacity="1.0"/>
<text x="480" y="129" font-size="18px" font-style="italic" text-anchor="middle" fill="#000000" fill-opacity="1" font-family="DejaVu Sans">M1</text>
<rect x="500" y="100" width="40" height="40" fill="none" stroke="black" stroke-opacity="1.0"/>
<rect x="500" y="100" width="40" height="40" fill="none" stroke="black" stroke-opacity="1.0"/>
<text x="520" y="129" font-size="18px" font-style="italic" text-anchor="middle" fill="#000000" fill-opacity="1" font-family="DejaVu Sans">W</text>
<rect x="220" y="140" width="40" height="40" fill="none" stroke="black" stroke-opacity="1.0"/>
<rect x="220" y="140" width="40" height="40" fill="none" stroke="black" stroke-opacity="1.0"/>
<text x="240" y="169" font-size="18px" font-style="italic" text-anchor="middle" fill="#000000" fill-opacity="1" font-family="DejaVu Sans">I0</text>
<rect x="260" y="140" width="40" height="40" fill="none" stroke="black" stroke-opacity="1.0"/>
<rect x="260" y="140" width="40" height="40" fill="none" stroke="black" stroke-opacity="1.0"/>
<circle cx="280" cy="160" r="10" stroke="black" fill="aqua"/>
<rect x="300" y="140" width="40" height="40" fill="none" stroke="black" stroke-opacity="1.0"/>
<rect x="300" y="140" width="40" height="40" fill="none" stroke="black" stroke-opacity="1.0"/>
<circle cx="320" cy="160" r="10" stroke="black" fill="aqua"/>
<rect x="340" y="140" width="40" height="40" fill="none" stroke="black" stroke-opacity="1.0"/>
<rect x="340" y="140" width="40" height="40" fill="none" stroke="black" stroke-opacity="1.0"/>
<text x="360" y="169" font-size="18px" font-style="italic" text-anchor="middle" fill="#000000" fill-opacity="1" font-family="DejaVu Sans">I1</text>
<rect x="380" y="140" width="40" height="40" fill="none" stroke="black" stroke-opacity="1.0"/>
<rect x="380" y="140" width="40" height="40" fill="none" stroke="black" stroke-opacity="1.0"/>
<text x="400" y="169" font-size="18px" font-style="italic" text-anchor="middle" fill="#000000" fill-opacity="1" font-family="DejaVu Sans">D</text>
<rect x="420" y="140" width="40" height="40" fill="none" stroke="black" stroke-opacity="1.0"/>
<rect x="420" y="140" width="40" height="40" fill="none" stroke="black" stroke-opacity="1.0"/>
<circle cx="440" cy="160" r="10" stroke="black" fill="aqua"/>
<rect x="460" y="140" width="40" height="40" fill="none" stroke="black" stroke-opacity="1.0"/>
<rect x="460" y="140" width="40" height="40" fill="none" stroke="black" stroke-opacity="1.0"/>
<circle cx="480" cy="160" r="10" stroke="black" fill="aqua"/>
<rect x="500" y="140" width="40" height="40" fill="none" stroke="black" stroke-opacity="1.0"/>
<rect x="500" y="140" width="40" height="40" fill="none" stroke="black" stroke-opacity="1.0"/>
<text x="520" y="169" font-size="18px" font-style="italic" text-anchor="middle" fill="#000000" fill-opacity="1" font-family="DejaVu Sans">E</text>
<rect x="540" y="140" width="40" height="40" fill="none" stroke="black" stroke-opacity="1.0"/>
<rect x="540" y="140" width="40" height="40" fill="none" stroke="black" stroke-opacity="1.0"/>
<text x="560" y="169" font-size="18px" font-style="italic" text-anchor="middle" fill="#000000" fill-opacity="1" font-family="DejaVu Sans">M0</text>
<rect x="580" y="140" width="40" height="40" fill="none" stroke="black" stroke-opacity="1.0"/>
<rect x="580" y="140" width="40" height="40" fill="none" stroke="black" stroke-opacity="1.0"/>
<text x="600" y="169" font-size="18px" font-style="italic" text-anchor="middle" fill="#000000" fill-opacity="1" font-family="DejaVu Sans">M1</text>
<rect x="620" y="140" width="40" height="40" fill="none" stroke="black" stroke-opacity="1.0"/>
<rect x="620" y="140" width="40" height="40" fill="none" stroke="black" stroke-opacity="1.0"/>
<text x="640" y="169" font-size="18px" font-style="italic" text-anchor="middle" fill="#000000" fill-opacity="1" font-family="DejaVu Sans">W</text>
<rect x="340" y="180" width="40" height="40" fill="none" stroke="black" stroke-opacity="1.0"/>
<rect x="340" y="180" width="40" height="40" fill="none" stroke="black" stroke-opacity="1.0"/>
<text x="360" y="209" font-size="18px" font-style="italic" text-anchor="middle" fill="#000000" fill-opacity="1" font-family="DejaVu Sans">I0</text>
<rect x="380" y="180" width="40" height="40" fill="none" stroke="black" stroke-opacity="1.0"/>
<rect x="380" y="180" width="40" height="40" fill="none" stroke="black" stroke-opacity="1.0"/>
<text x="400" y="209" font-size="18px" font-style="italic" text-anchor="middle" fill="#000000" fill-opacity="1" font-family="DejaVu Sans">I1</text>
<rect x="420" y="180" width="40" height="40" fill="none" stroke="black" stroke-opacity="1.0"/>
<rect x="420" y="180" width="40" height="40" fill="none" stroke="black" stroke-opacity="1.0"/>
<circle cx="440" cy="200" r="10" stroke="black" fill="aqua"/>
<rect x="460" y="180" width="40" height="40" fill="none" stroke="black" stroke-opacity="1.0"/>
<rect x="460" y="180" width="40" height="40" fill="none" stroke="black" stroke-opacity="1.0"/>
<circle cx="480" cy="200" r="10" stroke="black" fill="aqua"/>
<rect x="500" y="180" width="40" height="40" fill="none" stroke="black" stroke-opacity="1.0"/>
<rect x="500" y="180" width="40" height="40" fill="none" stroke="black" stroke-opacity="1.0"/>
<text x="520" y="209" font-size="18px" font-style="italic" text-anchor="middle" fill="#000000" fill-opacity="1" font-family="DejaVu Sans">D</text>
<rect x="540" y="180" width="40" height="40" fill="none" stroke="black" stroke-opacity="1.0"/>
<rect x="540" y="180" width="40" height="40" fill="none" stroke="black" stroke-opacity="1.0"/>
<text x="560" y="209" font-size="18px" font-style="italic" text-anchor="middle" fill="#000000" fill-opacity="1" font-family="DejaVu Sans">E</text>
<rect x="580" y="180" width="40" height="40" fill="none" stroke="black" stroke-opacity="1.0"/>
<rect x="580" y="180" width="40" height="40" fill="none" stroke="black" stroke-opacity="1.0"/>
<text x="600" y="209" font-size="18px" font-style="italic" text-anchor="middle" fill="#000000" fill-opacity="1" font-family="DejaVu Sans">M0</text>
<rect x="620" y="180" width="40" height="40" fill="none" stroke="black" stroke-opacity="1.0"/>
<rect x="620" y="180" width="40" height="40" fill="none" stroke="black" stroke-opacity="1.0"/>
<text x="640" y="209" font-size="18px" font-style="italic" text-anchor="middle" fill="#000000" fill-opacity="1" font-family="DejaVu Sans">M1</text>
<rect x="660" y="180" width="40" height="40" fill="none" stroke="black" stroke-opacity="1.0"/>
<rect x="660" y="180" width="40" height="40" fill="none" stroke="black" stroke-opacity="1.0"/>
<text x="680" y="209" font-size="18px" font-style="italic" text-anchor="middle" fill="#000000" fill-opacity="1" font-family="DejaVu Sans">W</text>
<rect x="380" y="220" width="40" height="40" fill="none" stroke="black" stroke-opacity="1.0"/>
<rect x="380" y="220" width="40" height="40" fill="none" stroke="black" stroke-opacity="1.0"/>
<text x="400" y="249" font-size="18px" font-style="italic" text-anchor="middle" fill="#000000" fill-opacity="1" font-family="DejaVu Sans">I0</text>
<rect x="420" y="220" width="40" height="40" fill="none" stroke="black" stroke-opacity="1.0"/>
<rect x="420" y="220" width="40" height="40" fill="none" stroke="black" stroke-opacity="1.0"/>
<circle cx="440" cy="240" r="10" stroke="black" fill="aqua"/>
<rect x="460" y="220" width="40" height="40" fill="none" stroke="black" stroke-opacity="1.0"/>
<rect x="460" y="220" width="40" height="40" fill="none" stroke="black" stroke-opacity="1.0"/>
<circle cx="480" cy="240" r="10" stroke="black" fill="aqua"/>
<rect x="500" y="220" width="40" height="40" fill="none" stroke="black" stroke-opacity="1.0"/>
<rect x="500" y="220" width="40" height="40" fill="none" stroke="black" stroke-opacity="1.0"/>
<text x="520" y="249" font-size="18px" font-style="italic" text-anchor="middle" fill="#000000" fill-opacity="1" font-family="DejaVu Sans">I1</text>
<rect x="540" y="220" width="40" height="40" fill="none" stroke="black" stroke-opacity="1.0"/>
<rect x="540" y="220" width="40" height="40" fill="none" stroke="black" stroke-opacity="1.0"/>
<circle cx="560" cy="240" r="10" stroke="black" fill="aqua"/>
<rect x="580" y="220" width="40" height="40" fill="none" stroke="black" stroke-opacity="1.0"/>
<rect x="580" y="220" width="40" height="40" fill="none" stroke="black" stroke-opacity="1.0"/>
<text x="600" y="249" font-size="18px" font-style="italic" text-anchor="middle" fill="#000000" fill-opacity="1" font-family="DejaVu Sans">D</text>
<rect x="620" y="220" width="40" height="40" fill="none" stroke="black" stroke-opacity="1.0"/>
<rect x="620" y="220" width="40" height="40" fill="none" stroke="black" stroke-opacity="1.0"/>
<text x="640" y="249" font-size="18px" font-style="italic" text-anchor="middle" fill="#000000" fill-opacity="1" font-family="DejaVu Sans">E</text>
<rect x="660" y="220" width="40" height="40" fill="none" stroke="black" stroke-opacity="1.0"/>
<rect x="660" y="220" width="40" height="40" fill="none" stroke="black" stroke-opacity="1.0"/>
<text x="680" y="249" font-size="18px" font-style="italic" text-anchor="middle" fill="#000000" fill-opacity="1" font-family="DejaVu Sans">M0</text>
<rect x="700" y="220" width="40" height="40" fill="none" stroke="black" stroke-opacity="1.0"/>
<rect x="700" y="220" width="40" height="40" fill="none" stroke="black" stroke-opacity="1.0"/>
<text x="720" y="249" font-size="18px" font-style="italic" text-anchor="middle" fill="#000000" fill-opacity="1" font-family="DejaVu Sans">M1</text>
<rect x="740" y="220" width="40" height="40" fill="none" stroke="black" stroke-opacity="1.0"/>
<rect x="740" y="220" width="40" height="40" fill="none" stroke="black" stroke-opacity="1.0"/>
<text x="760" y="249" font-size="18px" font-style="italic" text-anchor="middle" fill="#000000" fill-opacity="1" font-family="DejaVu Sans">W</text>
<rect x="500" y="260" width="40" height="40" fill="none" stroke="black" stroke-opacity="1.0"/>
<rect x="500" y="260" width="40" height="40" fill="none" stroke="black" stroke-opacity="1.0"/>
<text x="520" y="289" font-size="18px" font-style="italic" text-anchor="middle" fill="#000000" fill-opacity="1" font-family="DejaVu Sans">I0</text>
<rect x="540" y="260" width="40" height="40" fill="none" stroke="black" stroke-opacity="1.0"/>
<rect x="540" y="260" width="40" height="40" fill="none" stroke="black" stroke-opacity="1.0"/>
<circle cx="560" cy="280" r="10" stroke="black" fill="aqua"/>
<rect x="580" y="260" width="40" height="40" fill="none" stroke="black" stroke-opacity="1.0"/>
<rect x="580" y="260" width="40" height="40" fill="none" stroke="black" stroke-opacity="1.0"/>
<text x="600" y="289" font-size="18px" font-style="italic" text-anchor="middle" fill="#000000" fill-opacity="1" font-family="DejaVu Sans">I1</text>
<rect x="620" y="260" width="40" height="40" fill="none" stroke="black" stroke-opacity="1.0"/>
<rect x="620" y="260" width="40" height="40" fill="none" stroke="black" stroke-opacity="1.0"/>
<text x="640" y="289" font-size="18px" font-style="italic" text-anchor="middle" fill="#000000" fill-opacity="1" font-family="DejaVu Sans">D</text>
<rect x="660" y="260" width="40" height="40" fill="none" stroke="black" stroke-opacity="1.0"/>
<rect x="660" y="260" width="40" height="40" fill="none" stroke="black" stroke-opacity="1.0"/>
<text x="680" y="289" font-size="18px" font-style="italic" text-anchor="middle" fill="#000000" fill-opacity="1" font-family="DejaVu Sans">E</text>
<rect x="700" y="260" width="40" height="40" fill="none" stroke="black" stroke-opacity="1.0"/>
<rect x="700" y="260" width="40" height="40" fill="none" stroke="black" stroke-opacity="1.0"/>
<text x="720" y="289" font-size="18px" font-style="italic" text-anchor="middle" fill="#000000" fill-opacity="1" font-family="DejaVu Sans">M0</text>
<rect x="740" y="260" width="40" height="40" fill="none" stroke="black" stroke-opacity="1.0"/>
<rect x="740" y="260" width="40" height="40" fill="none" stroke="black" stroke-opacity="1.0"/>
<text x="760" y="289" font-size="18px" font-style="italic" text-anchor="middle" fill="#000000" fill-opacity="1" font-family="DejaVu Sans">M1</text>
<rect x="780" y="260" width="40" height="40" fill="none" stroke="black" stroke-opacity="1.0"/>
<rect x="780" y="260" width="40" height="40" fill="none" stroke="black" stroke-opacity="1.0"/>
<text x="800" y="289" font-size="18px" font-style="italic" text-anchor="middle" fill="#000000" fill-opacity="1" font-family="DejaVu Sans">W</text>
<rect x="580" y="300" width="40" height="40" fill="none" stroke="black" stroke-opacity="1.0"/>
<rect x="580" y="300" width="40" height="40" fill="none" stroke="black" stroke-opacity="1.0"/>
<text x="600" y="329" font-size="18px" font-style="italic" text-anchor="middle" fill="#000000" fill-opacity="1" font-family="DejaVu Sans">I0</text>
<rect x="620" y="300" width="40" height="40" fill="none" stroke="black" stroke-opacity="1.0"/>
<rect x="620" y="300" width="40" height="40" fill="none" stroke="black" stroke-opacity="1.0"/>
<text x="640" y="329" font-size="18px" font-style="italic" text-anchor="middle" fill="#000000" fill-opacity="1" font-family="DejaVu Sans">I1</text>
<rect x="660" y="300" width="40" height="40" fill="none" stroke="black" stroke-opacity="1.0"/>
<rect x="660" y="300" width="40" height="40" fill="none" stroke="black" stroke-opacity="1.0"/>
<text x="680" y="329" font-size="18px" font-style="italic" text-anchor="middle" fill="#000000" fill-opacity="1" font-family="DejaVu Sans">D</text>
<rect x="700" y="300" width="40" height="40" fill="none" stroke="black" stroke-opacity="1.0"/>
<rect x="700" y="300" width="40" height="40" fill="none" stroke="black" stroke-opacity="1.0"/>
<text x="720" y="329" font-size="18px" font-style="italic" text-anchor="middle" fill="#000000" fill-opacity="1" font-family="DejaVu Sans">E</text>
<rect x="740" y="300" width="40" height="40" fill="none" stroke="black" stroke-opacity="1.0"/>
<rect x="740" y="300" width="40" height="40" fill="none" stroke="black" stroke-opacity="1.0"/>
<text x="760" y="329" font-size="18px" font-style="italic" text-anchor="middle" fill="#000000" fill-opacity="1" font-family="DejaVu Sans">M0</text>
<rect x="780" y="300" width="40" height="40" fill="none" stroke="black" stroke-opacity="1.0"/>
<rect x="780" y="300" width="40" height="40" fill="none" stroke="black" stroke-opacity="1.0"/>
<text x="800" y="329" font-size="18px" font-style="italic" text-anchor="middle" fill="#000000" fill-opacity="1" font-family="DejaVu Sans">M1</text>
<rect x="820" y="300" width="40" height="40" fill="none" stroke="black" stroke-opacity="1.0"/>
<rect x="820" y="300" width="40" height="40" fill="none" stroke="black" stroke-opacity="1.0"/>
<text x="840" y="329" font-size="18px" font-style="italic" text-anchor="middle" fill="#000000" fill-opacity="1" font-family="DejaVu Sans">W</text>
<circle cx="585" cy="240" r="5" stroke="black" fill="red"/>
<circle cx="575" cy="200" r="5" stroke="black" fill="red"/>
<line x1="585" y1="240" x2="575" y2="200" stroke="red" stroke-width="1.5" stroke-opacity="1.0"/>
<line x1="585" y1="240" x2="575" y2="200" stroke="red" stroke-width="1.5" stroke-opacity="1.0"/>
<circle cx="505" cy="160" r="5" stroke="black" fill="red"/>
<circle cx="495" cy="120" r="5" stroke="black" fill="red"/>
<line x1="505" y1="160" x2="495" y2="120" stroke="red" stroke-width="1.5" stroke-opacity="1.0"/>
<line x1="505" y1="160" x2="495" y2="120" stroke="red" stroke-width="1.5" stroke-opacity="1.0"/>
<circle cx="385" cy="120" r="5" stroke="black" fill="red"/>
<circle cx="375" cy="80" r="5" stroke="black" fill="red"/>
<line x1="385" y1="120" x2="375" y2="80" stroke="red" stroke-width="1.5" stroke-opacity="1.0"/>
<line x1="385" y1="120" x2="375" y2="80" stroke="red" stroke-width="1.5" stroke-opacity="1.0"/>
<circle cx="345" cy="80" r="5" stroke="black" fill="red"/>
<circle cx="335" cy="40" r="5" stroke="black" fill="red"/>
<line x1="345" y1="80" x2="335" y2="40" stroke="red" stroke-width="1.5" stroke-opacity="1.0"/>
<line x1="345" y1="80" x2="335" y2="40" stroke="red" stroke-width="1.5" stroke-opacity="1.0"/>
</svg>
